%YAML 1.1
%TAG !u! tag:unity3d.com,2011:
--- !u!1045 &1
EditorBuildSettings:
  m_ObjectHideFlags: 0
  serializedVersion: 2
  m_Scenes:
  - enabled: 1
    path: Assets/_cm3d21.unity
    guid: 00000000000000000000000000000000
  - enabled: 1
    path: Assets/Scene/SceneCharacterSelect.unity
    guid: 00000000000000000000000000000000
  - enabled: 1
    path: Assets/Scene/SceneCompetitiveShow.unity
    guid: 00000000000000000000000000000000
  - enabled: 1
    path: Assets/Scene/SceneDaily.unity
    guid: 00000000000000000000000000000000
  - enabled: 1
    path: Assets/Scene/SceneDance_DDFL_Release.unity
    guid: 00000000000000000000000000000000
  - enabled: 1
    path: Assets/Scene/SceneEdit.unity
    guid: 2281fac819ab95a14634ecff087c5090
  - enabled: 1
    path: Assets/Scene/SceneLogo.unity
    guid: 00000000000000000000000000000000
  - enabled: 1
    path: Assets/Scene/SceneMaidManagement.unity
    guid: 00000000000000000000000000000000
  - enabled: 1
    path: Assets/Scene/SceneShop.unity
    guid: 00000000000000000000000000000000
  - enabled: 1
    path: Assets/Scene/SceneTitle.unity
    guid: 00000000000000000000000000000000
  - enabled: 1
    path: Assets/Scene/SceneTrophy.unity
    guid: 00000000000000000000000000000000
  - enabled: 1
    path: Assets/Scene/SceneTryInfo.unity
    guid: 00000000000000000000000000000000
  - enabled: 1
    path: Assets/Scene/SceneUserEdit.unity
    guid: 00000000000000000000000000000000
  - enabled: 1
    path: Assets/Scene/SceneWarning.unity
    guid: 00000000000000000000000000000000
  - enabled: 1
    path: Assets/Scene/SceneYotogi.unity
    guid: 00000000000000000000000000000000
  - enabled: 1
    path: Assets/Scene/SceneADV.unity
    guid: 00000000000000000000000000000000
  - enabled: 1
    path: Assets/Scene/SceneStartDaily.unity
    guid: 00000000000000000000000000000000
  - enabled: 1
    path: Assets/Scene/SceneToTitle.unity
    guid: 00000000000000000000000000000000
  - enabled: 1
    path: Assets/Scene/SceneSingleEffect.unity
    guid: 00000000000000000000000000000000
  - enabled: 1
    path: Assets/Scene/SceneStaffRoll.unity
    guid: 00000000000000000000000000000000
  - enabled: 1
    path: Assets/Scene/SceneDance_ETYL_Release.unity
    guid: 00000000000000000000000000000000
  - enabled: 1
    path: Assets/Scene/SceneDanceSelect.unity
    guid: 00000000000000000000000000000000
  - enabled: 1
    path: Assets/Scene/SceneDance_SCL_Release.unity
    guid: 00000000000000000000000000000000
  - enabled: 1
    path: Assets/Scene/SceneDeskCustomize.unity
    guid: 00000000000000000000000000000000
  - enabled: 1
    path: Assets/Scene/SceneFreeModeSelect.unity
    guid: 00000000000000000000000000000000
  - enabled: 1
    path: Assets/Scene/SceneMaidBattle.unity
    guid: 00000000000000000000000000000000
  - enabled: 1
    path: Assets/Scene/ScenePhotoMode.unity
    guid: 00000000000000000000000000000000
  - enabled: 1
    path: Assets/Scene/SceneDance_RTY_Release.unity
    guid: 00000000000000000000000000000000
  - enabled: 1
    path: Assets/Scene/SceneEmpireLeague.unity
    guid: 00000000000000000000000000000000
  - enabled: 1
    path: Assets/Scene/SceneDance_KNT_Release.unity
    guid: 00000000000000000000000000000000
  - enabled: 1
    path: Assets/Scene/SceneVRTouch.unity
    guid: 00000000000000000000000000000000
  - enabled: 1
    path: Assets/Scene/SceneDance_SSNK_Release.unity
    guid: 00000000000000000000000000000000
  - enabled: 1
    path: Assets/Scene/AddSceneVRMiniGameAirPlane.unity
    guid: 00000000000000000000000000000000
  - enabled: 1
    path: Assets/Scene/AddSceneVRMiniGameDarts.unity
    guid: 00000000000000000000000000000000
  - enabled: 1
    path: Assets/Scene/AddSceneVRMiniGameWanage.unity
    guid: 00000000000000000000000000000000
  - enabled: 1
    path: Assets/Scene/AddSceneVRMediaPlay.unity
    guid: 00000000000000000000000000000000
  - enabled: 1
    path: Assets/Scene/SceneVRCommunication.unity
    guid: 00000000000000000000000000000000
  - enabled: 1
    path: Assets/Scene/SceneDance_NMF_Release.unity
    guid: 00000000000000000000000000000000
  - enabled: 1
    path: Assets/Scene/SceneDance_BLD_Release.unity
    guid: 00000000000000000000000000000000
  - enabled: 1
    path: Assets/Scene/SceneDance_KAD_Release.unity
    guid: 00000000000000000000000000000000
  - enabled: 1
    path: Assets/Scene/SceneFacilityManagement.unity
    guid: 00000000000000000000000000000000
  - enabled: 1
    path: Assets/Scene/SceneFacilityPowerUp.unity
    guid: 00000000000000000000000000000000
  - enabled: 1
    path: Assets/Scene/SceneScenarioSelect.unity
    guid: 00000000000000000000000000000000
  - enabled: 1
    path: Assets/Scene/SceneDance_BLDT_Release.unity
    guid: 00000000000000000000000000000000
  - enabled: 1
    path: Assets/Scene/SceneDance_KADT_Release.unity
    guid: 00000000000000000000000000000000
  - enabled: 1
    path: Assets/Scene/SceneDance_NMFT_Release.unity
    guid: 00000000000000000000000000000000
  - enabled: 1
    path: Assets/Scene/SceneBenchMarkSetting.unity
    guid: 00000000000000000000000000000000
  - enabled: 1
    path: Assets/Scene/SceneCasino.unity
    guid: 00000000000000000000000000000000
  - enabled: 1
    path: Assets/Scene/SceneBlackJack.unity
    guid: 00000000000000000000000000000000
  - enabled: 1
    path: Assets/Scene/SceneCasinoSlot.unity
    guid: 00000000000000000000000000000000
  - enabled: 1
    path: Assets/Scene/SceneDance_LUM_Release.unity
    guid: 00000000000000000000000000000000
  - enabled: 1
    path: Assets/Scene/SceneCasinoShop.unity
    guid: 00000000000000000000000000000000
  - enabled: 1
    path: Assets/Scene/SceneCreativeRoom.unity
    guid: 00000000000000000000000000000000
  - enabled: 1
    path: Assets/Scene/SceneKasizukiMainMenu.unity
    guid: 00000000000000000000000000000000
  - enabled: 1
    path: Assets/Scene/SceneNetorareCheck.unity
    guid: 00000000000000000000000000000000
  - enabled: 1
    path: Assets/Scene/SceneDance_MOE_Release.unity
    guid: 00000000000000000000000000000000
  - enabled: 1
    path: Assets/Scene/SceneDance_SCLT_Release.unity
    guid: 00000000000000000000000000000000
  - enabled: 1
    path: Assets/Scene/SceneDance_KNTT_Release.unity
    guid: 00000000000000000000000000000000
  - enabled: 1
    path: Assets/Scene/SceneDance_MOE2_Release.unity
    guid: 00000000000000000000000000000000
  - enabled: 1
    path: Assets/Scene/SceneDance_DDFLT_Release.unity
    guid: 00000000000000000000000000000000
  - enabled: 1
    path: Assets/Scene/SceneDance_RTYT_Release.unity
    guid: 00000000000000000000000000000000
  - enabled: 1
    path: Assets/Scene/SceneDance_MOET_Release.unity
    guid: 00000000000000000000000000000000
  - enabled: 1
    path: Assets/Scene/SceneDance_LUMT_Release.unity
    guid: 00000000000000000000000000000000
  - enabled: 1
    path: Assets/Scene/SceneYotogiOld.unity
    guid: 00000000000000000000000000000000
  - enabled: 1
    path: Assets/Scene/SceneDance_ETY21T_Release.unity
    guid: 00000000000000000000000000000000
  - enabled: 1
    path: Assets/Scene/SceneDance_CKTCK_Release.unity
    guid: 00000000000000000000000000000000
  - enabled: 1
    path: Assets/Scene/SceneDance_DDFLK_Release.unity
    guid: 00000000000000000000000000000000
  - enabled: 1
    path: Assets/Scene/SceneDance_HHSK_Release.unity
    guid: 00000000000000000000000000000000
  - enabled: 1
    path: Assets/Scene/SceneDance_RTYK_Release.unity
    guid: 00000000000000000000000000000000
  - enabled: 1
    path: Assets/Scene/SceneDance_SCLK_Release.unity
    guid: 00000000000000000000000000000000
  - enabled: 1
    path: Assets/Scene/SceneDance_SMTK_Release.unity
    guid: 00000000000000000000000000000000
  - enabled: 1
    path: Assets/Scene/SceneDance_SUH_Release.unity
    guid: 00000000000000000000000000000000
  - enabled: 1
    path: Assets/Scene/SceneDance_SUHT_Release.unity
    guid: 00000000000000000000000000000000
  - enabled: 1
    path: Assets/Scene/SceneDance_BLDK_Release.unity
    guid: 00000000000000000000000000000000
  - enabled: 1
    path: Assets/Scene/SceneDance_KADK_Release.unity
    guid: 00000000000000000000000000000000
  - enabled: 1
    path: Assets/Scene/SceneDance_NMFK_Release.unity
    guid: 00000000000000000000000000000000
  - enabled: 1
    path: Assets/Scene/SceneDance_MAP_Release.unity
    guid: 00000000000000000000000000000000
  - enabled: 1
    path: Assets/Scene/SceneDance_MAPT_Release.unity
    guid: 00000000000000000000000000000000
  - enabled: 1
    path: Assets/Scene/SceneDance_LUM_K_Release.unity
    guid: 00000000000000000000000000000000
  - enabled: 1
    path: Assets/Scene/SceneDance_SUHK_Release.unity
    guid: 00000000000000000000000000000000
  - enabled: 1
    path: Assets/Scene/SceneDance_MOEK_Release.unity
    guid: 00000000000000000000000000000000
  - enabled: 1
    path: Assets/Scene/SceneEmpireLifeMode.unity
    guid: 00000000000000000000000000000000
  - enabled: 1
    path: Assets/Scene/SceneDance_SDB_Release.unity
    guid: 00000000000000000000000000000000
  - enabled: 1
    path: Assets/Scene/SceneDance_SDBT_Release.unity
    guid: 00000000000000000000000000000000
  - enabled: 1
    path: Assets/Scene/SceneDance_FUA_P_Release.unity
    guid: 00000000000000000000000000000000
